…
``` r
wtMean <- gapminder %>% 
  group_by(continent,year) %>% 
  summarise(lifeExp=weighted.mean(lifeExp,pop))
wtMean
```

    ## # A tibble: 60 x 3
    ## # Groups:   continent [?]
    ##    continent  year lifeExp
    ##    <fct>     <int>   <dbl>
    ##  1 Africa     1952    38.8
    ##  2 Africa     1957    40.9
    ##  3 Africa     1962    43.1
    ##  4 Africa     1967    45.2
    ##  5 Africa     1972    47.2
    ##  6 Africa     1977    49.2
    ##  7 Africa     1982    51.0
    ##  8 Africa     1987    52.8
    ##  9 Africa     1992    53.4
    ## 10 Africa     1997    53.3
    ## # ... with 50 more rows
…
How is life expectancy changing over time on different continents?
------------------------------------------------------------------

``` r
gapminder %>% 
  group_by(continent,year) %>% 
  summarise(lifeExp=mean(lifeExp))
```

    ## # A tibble: 60 x 3
    ## # Groups:   continent [?]
    ##    continent  year lifeExp
    ##    <fct>     <int>   <dbl>
    ##  1 Africa     1952    39.1
    ##  2 Africa     1957    41.3
    ##  3 Africa     1962    43.3
    ##  4 Africa     1967    45.3
    ##  5 Africa     1972    47.5
    ##  6 Africa     1977    49.6
    ##  7 Africa     1982    51.6
    ##  8 Africa     1987    53.3
    ##  9 Africa     1992    53.6
    ## 10 Africa     1997    53.6
    ## # ... with 50 more rows
…
``` r
popMean <- gapminder %>% 
  group_by(country,year,continent) %>% 
  filter(pop > 50000000) %>%  
  summarise(pop=mean(pop))
popMean
```

    ## # A tibble: 190 x 4
    ## # Groups:   country, year [?]
    ##    country     year continent       pop
    ##    <fct>      <int> <fct>         <dbl>
    ##  1 Bangladesh  1957 Asia       51365468
    ##  2 Bangladesh  1962 Asia       56839289
    ##  3 Bangladesh  1967 Asia       62821884
    ##  4 Bangladesh  1972 Asia       70759295
    ##  5 Bangladesh  1977 Asia       80428306
    ##  6 Bangladesh  1982 Asia       93074406
    ##  7 Bangladesh  1987 Asia      103764241
    ##  8 Bangladesh  1992 Asia      113704579
    ##  9 Bangladesh  1997 Asia      123315288
    ## 10 Bangladesh  2002 Asia      135656790
    ## # ... with 180 more rows
…
